<svg width="24" height="24" viewBox="0 0 24 24" fill="none" xmlns="http://www.w3.org/2000/svg">
<path d="M6 15L12 20L18 15" stroke="#459DED" stroke-width="1.5" stroke-linecap="round" stroke-linejoin="round"/>
<path d="M12 20V4" stroke="#459DED" stroke-width="1.5" stroke-linecap="round" stroke-linejoin="round"/>
</svg>
