<svg width="24" height="24" viewBox="0 0 24 24" fill="none" xmlns="http://www.w3.org/2000/svg">
<path d="M12 0C5.3835 0 0 5.3835 0 12C0 14.307 0.6465 16.5225 1.872 18.432L0.054 22.971C-0.057 23.25 0.00749999 23.568 0.2205 23.781C0.363 23.9235 0.555 24 0.75 24C0.8445 24 0.9375 23.982 1.029 23.946L5.568 22.128C7.4775 23.3535 9.693 24 12 24C18.6165 24 24 18.6165 24 12C24 5.3835 18.6165 0 12 0ZM12 22.5C9.861 22.5 7.8135 21.867 6.081 20.6685C5.955 20.58 5.805 20.535 5.655 20.535C5.5605 20.535 5.466 20.553 5.376 20.589L2.097 21.903L3.411 18.624C3.504 18.39 3.474 18.1245 3.3315 17.919C2.133 16.1865 1.5 14.139 1.5 12C1.5 6.21 6.21 1.5 12 1.5C17.79 1.5 22.5 6.21 22.5 12C22.5 17.79 17.79 22.5 12 22.5Z" fill="#459DED"/>
<rect x="6" y="9" width="12" height="1.5" rx="0.75" fill="#459DED"/>
<rect x="6" y="13" width="8" height="1.5" rx="0.75" fill="#459DED"/>
</svg>
